{
  "settings": {
    "analysis": {
      "filter": {
        "russian_stop": {
          "type":       "stop",
          "stopwords":  "_russian_"
        },
        "russian_keywords": {
          "type":       "keyword_marker",
          "keywords":   ["тест"]
        },
        "russian_stemmer": {
          "type":       "stemmer",
          "language":   "russian"
        }
      },
      "analyzer": {
        "russian": {
          "tokenizer":  "standard",
          "filter": [
            "lowercase",
            "russian_stop",
            "russian_keywords",
            "russian_stemmer"
          ]
        }
      }
    }
  },
  "mappings": {
    "news": {
      "properties": {
          "title": {
            "type": "text",
            "analyzer": "russian"
          },
          "body": {
            "type": "text",
            "analyzer": "russian"
          }
        }
      }
  }
}